<?xml version="1.0" encoding="UTF-8"?>
<svg xmlns="http://www.w3.org/2000/svg" xmlns:xlink="http://www.w3.org/1999/xlink" width="600pt" height="600pt" viewBox="0 0 600 600" version="1.1">
<defs>
<g>
<symbol overflow="visible" id="glyph0-0">
<path style="stroke:none;" d="M 0.703125 2.46875 L 0.703125 -9.875 L 7.703125 -9.875 L 7.703125 2.46875 Z M 1.484375 1.703125 L 6.921875 1.703125 L 6.921875 -9.078125 L 1.484375 -9.078125 Z "/>
</symbol>
<symbol overflow="visible" id="glyph0-1">
<path style="stroke:none;" d="M 7.28125 -6.1875 C 7.59375 -6.75 7.96875 -7.164062 8.40625 -7.4375 C 8.84375 -7.707031 9.359375 -7.84375 9.953125 -7.84375 C 10.753906 -7.84375 11.367188 -7.5625 11.796875 -7 C 12.234375 -6.445312 12.453125 -5.65625 12.453125 -4.625 L 12.453125 0 L 11.1875 0 L 11.1875 -4.578125 C 11.1875 -5.316406 11.054688 -5.863281 10.796875 -6.21875 C 10.535156 -6.570312 10.140625 -6.75 9.609375 -6.75 C 8.953125 -6.75 8.4375 -6.53125 8.0625 -6.09375 C 7.6875 -5.664062 7.5 -5.078125 7.5 -4.328125 L 7.5 0 L 6.234375 0 L 6.234375 -4.578125 C 6.234375 -5.316406 6.101562 -5.863281 5.84375 -6.21875 C 5.582031 -6.570312 5.179688 -6.75 4.640625 -6.75 C 3.992188 -6.75 3.476562 -6.53125 3.09375 -6.09375 C 2.71875 -5.65625 2.53125 -5.066406 2.53125 -4.328125 L 2.53125 0 L 1.265625 0 L 1.265625 -7.65625 L 2.53125 -7.65625 L 2.53125 -6.46875 C 2.820312 -6.9375 3.164062 -7.28125 3.5625 -7.5 C 3.96875 -7.726562 4.445312 -7.84375 5 -7.84375 C 5.550781 -7.84375 6.019531 -7.703125 6.40625 -7.421875 C 6.800781 -7.140625 7.09375 -6.726562 7.28125 -6.1875 Z "/>
</symbol>
<symbol overflow="visible" id="glyph0-2">
<path style="stroke:none;" d="M 4.796875 -3.84375 C 3.785156 -3.84375 3.082031 -3.726562 2.6875 -3.5 C 2.289062 -3.269531 2.09375 -2.875 2.09375 -2.3125 C 2.09375 -1.863281 2.238281 -1.507812 2.53125 -1.25 C 2.832031 -0.988281 3.234375 -0.859375 3.734375 -0.859375 C 4.429688 -0.859375 4.988281 -1.101562 5.40625 -1.59375 C 5.832031 -2.09375 6.046875 -2.75 6.046875 -3.5625 L 6.046875 -3.84375 Z M 7.3125 -4.375 L 7.3125 0 L 6.046875 0 L 6.046875 -1.15625 C 5.765625 -0.695312 5.40625 -0.351562 4.96875 -0.125 C 4.539062 0.09375 4.019531 0.203125 3.40625 0.203125 C 2.625 0.203125 2 -0.015625 1.53125 -0.453125 C 1.070312 -0.898438 0.84375 -1.492188 0.84375 -2.234375 C 0.84375 -3.085938 1.128906 -3.734375 1.703125 -4.171875 C 2.285156 -4.609375 3.144531 -4.828125 4.28125 -4.828125 L 6.046875 -4.828125 L 6.046875 -4.953125 C 6.046875 -5.535156 5.851562 -5.984375 5.46875 -6.296875 C 5.09375 -6.617188 4.5625 -6.78125 3.875 -6.78125 C 3.4375 -6.78125 3.007812 -6.722656 2.59375 -6.609375 C 2.175781 -6.503906 1.78125 -6.347656 1.40625 -6.140625 L 1.40625 -7.3125 C 1.863281 -7.488281 2.304688 -7.617188 2.734375 -7.703125 C 3.171875 -7.796875 3.59375 -7.84375 4 -7.84375 C 5.113281 -7.84375 5.941406 -7.554688 6.484375 -6.984375 C 7.035156 -6.410156 7.3125 -5.539062 7.3125 -4.375 Z "/>
</symbol>
<symbol overflow="visible" id="glyph0-3">
<path style="stroke:none;" d="M 2.53125 -1.15625 L 2.53125 2.90625 L 1.265625 2.90625 L 1.265625 -7.65625 L 2.53125 -7.65625 L 2.53125 -6.5 C 2.800781 -6.945312 3.132812 -7.28125 3.53125 -7.5 C 3.9375 -7.726562 4.421875 -7.84375 4.984375 -7.84375 C 5.910156 -7.84375 6.664062 -7.472656 7.25 -6.734375 C 7.832031 -5.992188 8.125 -5.023438 8.125 -3.828125 C 8.125 -2.617188 7.832031 -1.644531 7.25 -0.90625 C 6.664062 -0.164062 5.910156 0.203125 4.984375 0.203125 C 4.421875 0.203125 3.9375 0.09375 3.53125 -0.125 C 3.132812 -0.351562 2.800781 -0.695312 2.53125 -1.15625 Z M 6.8125 -3.828125 C 6.8125 -4.742188 6.617188 -5.460938 6.234375 -5.984375 C 5.859375 -6.515625 5.335938 -6.78125 4.671875 -6.78125 C 4.003906 -6.78125 3.476562 -6.515625 3.09375 -5.984375 C 2.71875 -5.460938 2.53125 -4.742188 2.53125 -3.828125 C 2.53125 -2.898438 2.71875 -2.171875 3.09375 -1.640625 C 3.476562 -1.117188 4.003906 -0.859375 4.671875 -0.859375 C 5.335938 -0.859375 5.859375 -1.117188 6.234375 -1.640625 C 6.617188 -2.171875 6.8125 -2.898438 6.8125 -3.828125 Z "/>
</symbol>
<symbol overflow="visible" id="glyph0-4">
<path style="stroke:none;" d="M 0.6875 -4.390625 L 4.375 -4.390625 L 4.375 -3.28125 L 0.6875 -3.28125 Z "/>
</symbol>
<symbol overflow="visible" id="glyph0-5">
<path style="stroke:none;" d="M 5.75 -6.484375 C 5.613281 -6.566406 5.460938 -6.625 5.296875 -6.65625 C 5.128906 -6.695312 4.945312 -6.71875 4.75 -6.71875 C 4.03125 -6.71875 3.476562 -6.484375 3.09375 -6.015625 C 2.71875 -5.554688 2.53125 -4.894531 2.53125 -4.03125 L 2.53125 0 L 1.265625 0 L 1.265625 -7.65625 L 2.53125 -7.65625 L 2.53125 -6.46875 C 2.800781 -6.9375 3.144531 -7.28125 3.5625 -7.5 C 3.988281 -7.726562 4.503906 -7.84375 5.109375 -7.84375 C 5.203125 -7.84375 5.300781 -7.835938 5.40625 -7.828125 C 5.507812 -7.816406 5.625 -7.796875 5.75 -7.765625 Z "/>
</symbol>
<symbol overflow="visible" id="glyph0-6">
<path style="stroke:none;" d="M 7.875 -4.140625 L 7.875 -3.53125 L 2.078125 -3.53125 C 2.140625 -2.664062 2.398438 -2.003906 2.859375 -1.546875 C 3.328125 -1.097656 3.976562 -0.875 4.8125 -0.875 C 5.300781 -0.875 5.769531 -0.929688 6.21875 -1.046875 C 6.675781 -1.160156 7.128906 -1.335938 7.578125 -1.578125 L 7.578125 -0.390625 C 7.117188 -0.203125 6.648438 -0.0546875 6.171875 0.046875 C 5.703125 0.148438 5.226562 0.203125 4.75 0.203125 C 3.519531 0.203125 2.546875 -0.148438 1.828125 -0.859375 C 1.117188 -1.578125 0.765625 -2.539062 0.765625 -3.75 C 0.765625 -5.007812 1.101562 -6.003906 1.78125 -6.734375 C 2.457031 -7.472656 3.375 -7.84375 4.53125 -7.84375 C 5.5625 -7.84375 6.375 -7.507812 6.96875 -6.84375 C 7.570312 -6.1875 7.875 -5.285156 7.875 -4.140625 Z M 6.609375 -4.515625 C 6.597656 -5.203125 6.40625 -5.75 6.03125 -6.15625 C 5.65625 -6.570312 5.160156 -6.78125 4.546875 -6.78125 C 3.835938 -6.78125 3.269531 -6.578125 2.84375 -6.171875 C 2.425781 -5.773438 2.1875 -5.21875 2.125 -4.5 Z "/>
</symbol>
<symbol overflow="visible" id="glyph0-7">
<path style="stroke:none;" d="M 6.359375 -6.5 L 6.359375 -10.640625 L 7.609375 -10.640625 L 7.609375 0 L 6.359375 0 L 6.359375 -1.15625 C 6.097656 -0.695312 5.765625 -0.351562 5.359375 -0.125 C 4.953125 0.09375 4.46875 0.203125 3.90625 0.203125 C 2.976562 0.203125 2.222656 -0.164062 1.640625 -0.90625 C 1.054688 -1.644531 0.765625 -2.617188 0.765625 -3.828125 C 0.765625 -5.023438 1.054688 -5.992188 1.640625 -6.734375 C 2.222656 -7.472656 2.976562 -7.84375 3.90625 -7.84375 C 4.46875 -7.84375 4.953125 -7.726562 5.359375 -7.5 C 5.765625 -7.28125 6.097656 -6.945312 6.359375 -6.5 Z M 2.078125 -3.828125 C 2.078125 -2.898438 2.265625 -2.171875 2.640625 -1.640625 C 3.023438 -1.117188 3.550781 -0.859375 4.21875 -0.859375 C 4.875 -0.859375 5.394531 -1.117188 5.78125 -1.640625 C 6.164062 -2.171875 6.359375 -2.898438 6.359375 -3.828125 C 6.359375 -4.742188 6.164062 -5.460938 5.78125 -5.984375 C 5.394531 -6.515625 4.875 -6.78125 4.21875 -6.78125 C 3.550781 -6.78125 3.023438 -6.515625 2.640625 -5.984375 C 2.265625 -5.460938 2.078125 -4.742188 2.078125 -3.828125 Z "/>
</symbol>
<symbol overflow="visible" id="glyph0-8">
<path style="stroke:none;" d="M 1.1875 -3.015625 L 1.1875 -7.65625 L 2.453125 -7.65625 L 2.453125 -3.0625 C 2.453125 -2.34375 2.59375 -1.800781 2.875 -1.4375 C 3.15625 -1.070312 3.578125 -0.890625 4.140625 -0.890625 C 4.816406 -0.890625 5.351562 -1.101562 5.75 -1.53125 C 6.144531 -1.96875 6.34375 -2.5625 6.34375 -3.3125 L 6.34375 -7.65625 L 7.609375 -7.65625 L 7.609375 0 L 6.34375 0 L 6.34375 -1.171875 C 6.039062 -0.710938 5.6875 -0.367188 5.28125 -0.140625 C 4.875 0.0859375 4.40625 0.203125 3.875 0.203125 C 3 0.203125 2.332031 -0.0664062 1.875 -0.609375 C 1.414062 -1.160156 1.1875 -1.960938 1.1875 -3.015625 Z M 4.359375 -7.84375 Z "/>
</symbol>
<symbol overflow="visible" id="glyph0-9">
<path style="stroke:none;" d="M 6.828125 -7.359375 L 6.828125 -6.1875 C 6.472656 -6.382812 6.113281 -6.53125 5.75 -6.625 C 5.394531 -6.726562 5.035156 -6.78125 4.671875 -6.78125 C 3.859375 -6.78125 3.222656 -6.519531 2.765625 -6 C 2.316406 -5.476562 2.09375 -4.753906 2.09375 -3.828125 C 2.09375 -2.890625 2.316406 -2.160156 2.765625 -1.640625 C 3.222656 -1.128906 3.859375 -0.875 4.671875 -0.875 C 5.035156 -0.875 5.394531 -0.921875 5.75 -1.015625 C 6.113281 -1.109375 6.472656 -1.253906 6.828125 -1.453125 L 6.828125 -0.296875 C 6.472656 -0.128906 6.109375 -0.00390625 5.734375 0.078125 C 5.359375 0.160156 4.960938 0.203125 4.546875 0.203125 C 3.390625 0.203125 2.46875 -0.15625 1.78125 -0.875 C 1.101562 -1.601562 0.765625 -2.585938 0.765625 -3.828125 C 0.765625 -5.066406 1.109375 -6.046875 1.796875 -6.765625 C 2.484375 -7.484375 3.425781 -7.84375 4.625 -7.84375 C 5.007812 -7.84375 5.382812 -7.800781 5.75 -7.71875 C 6.125 -7.644531 6.484375 -7.523438 6.828125 -7.359375 Z "/>
</symbol>
<symbol overflow="visible" id="glyph0-10">
<path style="stroke:none;" d="M 7.6875 -4.625 L 7.6875 0 L 6.421875 0 L 6.421875 -4.578125 C 6.421875 -5.304688 6.28125 -5.847656 6 -6.203125 C 5.71875 -6.566406 5.296875 -6.75 4.734375 -6.75 C 4.054688 -6.75 3.519531 -6.53125 3.125 -6.09375 C 2.726562 -5.664062 2.53125 -5.078125 2.53125 -4.328125 L 2.53125 0 L 1.265625 0 L 1.265625 -10.640625 L 2.53125 -10.640625 L 2.53125 -6.46875 C 2.832031 -6.925781 3.1875 -7.269531 3.59375 -7.5 C 4.007812 -7.726562 4.484375 -7.84375 5.015625 -7.84375 C 5.890625 -7.84375 6.550781 -7.566406 7 -7.015625 C 7.457031 -6.472656 7.6875 -5.675781 7.6875 -4.625 Z "/>
</symbol>
<symbol overflow="visible" id="glyph0-11">
<path style="stroke:none;" d="M 4.28125 -6.78125 C 3.613281 -6.78125 3.082031 -6.515625 2.6875 -5.984375 C 2.289062 -5.460938 2.09375 -4.742188 2.09375 -3.828125 C 2.09375 -2.910156 2.285156 -2.1875 2.671875 -1.65625 C 3.066406 -1.132812 3.601562 -0.875 4.28125 -0.875 C 4.957031 -0.875 5.488281 -1.132812 5.875 -1.65625 C 6.269531 -2.1875 6.46875 -2.910156 6.46875 -3.828125 C 6.46875 -4.734375 6.269531 -5.453125 5.875 -5.984375 C 5.488281 -6.515625 4.957031 -6.78125 4.28125 -6.78125 Z M 4.28125 -7.84375 C 5.375 -7.84375 6.234375 -7.484375 6.859375 -6.765625 C 7.484375 -6.054688 7.796875 -5.078125 7.796875 -3.828125 C 7.796875 -2.566406 7.484375 -1.578125 6.859375 -0.859375 C 6.234375 -0.148438 5.375 0.203125 4.28125 0.203125 C 3.1875 0.203125 2.328125 -0.148438 1.703125 -0.859375 C 1.078125 -1.578125 0.765625 -2.566406 0.765625 -3.828125 C 0.765625 -5.078125 1.078125 -6.054688 1.703125 -6.765625 C 2.328125 -7.484375 3.1875 -7.84375 4.28125 -7.84375 Z "/>
</symbol>
</g>
</defs>
<g id="surface59">
<rect x="0" y="0" width="600" height="600" style="fill:rgb(100%,100%,100%);fill-opacity:1;stroke:none;"/>
<path style="fill:none;stroke-width:1;stroke-linecap:butt;stroke-linejoin:miter;stroke:rgb(26.666667%,26.666667%,26.666667%);stroke-opacity:1;stroke-miterlimit:10;" d="M 20 20 L 580 580 "/>
<path style=" stroke:none;fill-rule:nonzero;fill:rgb(26.666667%,26.666667%,26.666667%);fill-opacity:1;" d="M 572.929688 572.929688 L 559.5625 566.117188 L 566.117188 559.5625 L 572.929688 572.929688 "/>
<path style="fill-rule:nonzero;fill:rgb(100%,0%,0%);fill-opacity:1;stroke-width:1;stroke-linecap:butt;stroke-linejoin:miter;stroke:rgb(0%,0%,0%);stroke-opacity:1;stroke-miterlimit:10;" d="M 30 20 C 30 25.523438 25.523438 30 20 30 C 14.476562 30 10 25.523438 10 20 C 10 14.476562 14.476562 10 20 10 C 25.523438 10 30 14.476562 30 20 "/>
<path style="fill-rule:nonzero;fill:rgb(100%,0%,0%);fill-opacity:1;stroke-width:1;stroke-linecap:butt;stroke-linejoin:miter;stroke:rgb(0%,0%,0%);stroke-opacity:1;stroke-miterlimit:10;" d="M 590 580 C 590 585.523438 585.523438 590 580 590 C 574.476562 590 570 585.523438 570 580 C 570 574.476562 574.476562 570 580 570 C 585.523438 570 590 574.476562 590 580 "/>
<g style="fill:rgb(0%,0%,0%);fill-opacity:1;">
  <use xlink:href="#glyph0-1" x="-22.5625" y="26.972656"/>
  <use xlink:href="#glyph0-2" x="-8.924805" y="26.972656"/>
  <use xlink:href="#glyph0-3" x="-0.345703" y="26.972656"/>
  <use xlink:href="#glyph0-4" x="8.541016" y="26.972656"/>
  <use xlink:href="#glyph0-5" x="13.592773" y="26.972656"/>
  <use xlink:href="#glyph0-6" x="19.348633" y="26.972656"/>
  <use xlink:href="#glyph0-7" x="27.961914" y="26.972656"/>
  <use xlink:href="#glyph0-8" x="36.848633" y="26.972656"/>
  <use xlink:href="#glyph0-9" x="45.72168" y="26.972656"/>
  <use xlink:href="#glyph0-6" x="53.418945" y="26.972656"/>
</g>
<g style="fill:rgb(0%,0%,0%);fill-opacity:1;">
  <use xlink:href="#glyph0-10" x="553.570312" y="586.972656"/>
  <use xlink:href="#glyph0-2" x="562.443359" y="586.972656"/>
  <use xlink:href="#glyph0-7" x="571.022461" y="586.972656"/>
  <use xlink:href="#glyph0-11" x="579.90918" y="586.972656"/>
  <use xlink:href="#glyph0-11" x="588.474609" y="586.972656"/>
  <use xlink:href="#glyph0-3" x="597.040039" y="586.972656"/>
</g>
</g>
</svg>
